[
    {"description": "Access to this database",
     "from": "_db", "to": "../.."},
    {"from": "_db/*", "to": "../../*"},
    {"description": "Access to this design document",
     "from": "_ddoc", "to": ""},
    {"from": "_ddoc/*", "to": "*"},
    {"from": "/buildIDs/*", "to": "../releases/_rewrite/buildIDs/*"},
    {"from": "/day/*", "to": "../summaries/_rewrite/day/*"},
    {"from": "/slot/*", "to": "../summaries/_rewrite/slot/*"},
    {"from": "_view/slotsNames", "to": "../names/_view/slots"},
    {"from": "_view/projectsNames", "to": "../names/_view/projects"},
    {"from": "_view/platformsNames", "to": "../names/_view/platforms"},
    {"from": "_view/diskSpace", "to": "../disk_space/_view/diskSpace"},
    {"from": "/", "to": "index.html"},
    {"from": "/*", "to": "*"}
]
